{
  "error": false,
  "data": {
    "transactionId": "BSPT172789958",
    "amount": 630,
    "gatewayModeDetailCode": "CC",
    "userDetails": {
      "id": 1,
      "accountNonExpired": true,
      "accountNonLocked": true,
      "credentialsNonExpired": true,
      "enabled": true,
      "socialLogin": false,
      "active": true,
      "password": "$2a$10$lGK0g6dXU0JXdophLifheOHssX8l2CpCTTS.NlWFMZIs5ZviJbZsG",
      "firstName": "Guest User",
      "lastName": "Guest",
      "type": "USER",
      "email": "guest@parveentravels.com",
      "mobile": "9442606831",
      "roleName": "Online User",
      "roleId": 4,
      "gender": "MALE",
      "address": {
        "id": 1,
        "landMark": "Barracks Road",
        "line1": "Parveen Travels",
        "line2": "Parveen Travels",
        "phoneNumber": "04426615200",
        "pinCode": "600118",
        "stationId": 1
      },
      "role": {
        "id": 4,
        "description": "Online User",
        "level": 13,
        "name": "Online User",
        "code": "ONLINE",
        "employeeRole": false,
        "authority": "Online User"
      },
      "userCommissions": [
        {
          "id": 17,
          "fromDate": "2014-06-26",
          "toDate": "2020-12-30",
          "userId": 1,
          "commissionId": 7,
          "byDefault": false
        }
      ],
      "userPrivileges": [],
      "username": "guest@parveentravels.com"
    },
    "gatewayProviderCredentialsDTO": {
      "operatorId": 1,
      "username": "paytm",
      "password": "xYS7VdrC!WFnJv&B",
      "attribute": "PARVEE25827447456315",
      "returnUrl": "https://111.93.236.131:8080/parveen-travels/paytm/receive/",
      "account": "paytm",
      "providerId": 7
    },
    "returnUrl": "https://111.93.236.131:8080/parveen-travels/paytm/receive/?eTransactionId=BSPT172789958",
    "gatewayCode": "paytm",
    "method": "post",
    "gatewayUrl": "https://secure.paytm.in/oltp-web/processTransaction",
    "gatewayFormParam": {
      "CALLBACK_URL": "https://111.93.236.131:8080/parveen-travels/paytm/receive/",
      "CHANNEL_ID": "WEB",
      "CHECKSUMHASH": "PbFKgKkknSMRkuj1It7sO1YoX3A4+E1mh1v6Uu2QhEbczInee3GeOWh/UwtZ2wDRBIpCLx5ZrAkaBuhbV0mK6hsterEcmyXR1b/Ycz0DGjQ=",
      "CUST_ID": "BSPT172789958",
      "EMAIL": "guest@parveentravels.com",
      "INDUSTRY_TYPE_ID": "Retail92",
      "MID": "PARVEE25827447456315",
      "MOBILE_NO": "9442606831",
      "ORDER_ID": "BSPT172789958",
      "REQUEST_TYPE": "DEFAULT",
      "TXN_AMOUNT": "630.00",
      "WEBSITE": "PARVEENWEB"
    }
  },
  "paymentRequestData": {
    "userDetails": {
      "id": 1,
      "accountNonExpired": true,
      "accountNonLocked": true,
      "credentialsNonExpired": true,
      "enabled": true,
      "socialLogin": false,
      "active": true,
      "password": "$2a$10$lGK0g6dXU0JXdophLifheOHssX8l2CpCTTS.NlWFMZIs5ZviJbZsG",
      "firstName": "Guest User",
      "lastName": "Guest",
      "type": "USER",
      "email": "guest@parveentravels.com",
      "mobile": "9442606831",
      "roleName": "Online User",
      "roleId": 4,
      "gender": "MALE",
      "address": {
        "id": 1,
        "landMark": "Barracks Road",
        "line1": "Parveen Travels",
        "line2": "Parveen Travels",
        "phoneNumber": "04426615200",
        "pinCode": "600118",
        "stationId": 1
      },
      "role": {
        "id": 4,
        "description": "Online User",
        "level": 13,
        "name": "Online User",
        "code": "ONLINE",
        "employeeRole": false,
        "authority": "Online User"
      },
      "userCommissions": [
        {
          "id": 17,
          "fromDate": "2014-06-26",
          "toDate": "2020-12-30",
          "userId": 1,
          "commissionId": 7,
          "byDefault": false
        }
      ],
      "userPrivileges": [],
      "username": "guest@parveentravels.com"
    },
    "transactionId": "BSPT172789958",
    "operatorId": 1,
    "amount": 630,
    "partnerCode": "paytm",
    "merchantCode": "PARVEEN",
    "gatewayModeDetailId": 1,
    "gatewayModeId": 1,
    "gatewayModeDetailCode": "CC",
    "returnURL": "https://111.93.236.131:8080/parveen-travels/paytm/receive/",
    "agentRecharge": false,
    "appCode": "APP",
    "gatewayModeCode": "CC",
    "bigDecimalString": "630.00"
  },
  "success": true
}